{
 "ninja_variables": {
  "ccopts": "-c -std=c99 -Wall -pedantic",
  "lnkopts": "-fPIC"
 },
 "ninja_rules": {
  "cc": "gcc -o $out $ccopts $in",
  "lnk": "gcc -o $out $lnkopts $in"
 },
 "ninja_goals": {
  "cc": {
   "rule": "cc",
   "ins": "%{paths.srcs}%",
   "out": "%{paths.bindir}%/%(file_base $in)%.o"
  },
  "lnk": {
   "rule": "lnk",
   "in": "%{paths.objs}%",
   "out": "%{paths.bindir}%/%{paths.exe}%"
  }
 },
 "env_variables": {
  "CPATH": "%(join_paths %{paths.headerdirs}%)%"
 }
}