{
 "ninja_variables": {},
 "ninja_rules": {
  "cc": "gcc -o $out -c -std=c99 -Wall -pedantic $in",
  "lnk": "gcc -o $out -fPIC $in"
 },
 "ninja_goals": {
  "cc0": {
   "rule": "cc",
   "out": "bin/calc_fib.o",
   "in": "c/calc_fib.c"
  },
  "cc1": {
   "rule": "cc",
   "out": "bin/fibonacci.o",
   "in": "c/fibonacci.c"
  },
  "lnk": {
   "rule": "lnk",
   "in": [
    "bin/calc_fib.o",
    "bin/fibonacci.o"
   ],
   "out": "bin/fibonacci"
  }
 },
 "env_variables": {
  "CPATH": "include"
 }
}