{
 "env": {
  "vars": {
   "CPATH": "%(join_paths %{paths.headerdirs}%)%"
  },
  "ninja_cmd": "<ninja_cmd>"
 },
 "vars": {
  "ccopts": "-c -std=c99 -Wall -pedantic",
  "lnkopts": "-fPIC"
 },
 "rules": {
  "cc": "gcc -o $out $ccopts $in",
  "lnk": "gcc -o $out $lnkopts $in"
 },
 "goals": {
  "cc": {
   "rule": "cc",
   "ins": "%{paths.srcs}%",
   "out": "%{paths.bindir}%/%(file_base $in)%.o"
  },
  "lnk": {
   "rule": "lnk",
   "in": "%{paths.objs}%",
   "out": "%{paths.bindir}%/%{paths.exe}%"
  }
 },
 "paths": {
  "srcdir": "c",
  "srcs": "%(find_ext_in_dir c, %{paths.srcdir}%)%",
  "headerdirs": [
   "include"
  ],
  "objnames": "%(add_files_ext %(files_bases %{paths.srcs}%)%, o)%",
  "bindir": "bin",
  "objs": "%(add_files_dir %{paths.bindir}%, %{paths.objnames}%)%",
  "exe": "fibonacci"
 }
}